{
    "dikes": {
        "url": "sealevelrise:MHW_NS_mitDeichen_RCP85",
        "features": null,
        "info": {
            "people_affected": 1654,
            "flooded_area": 513,
            "part_affected": null
        }
    },
    "no_dikes": {
        "url": "sealevelrise:MHW_NS_ohneDeiche_RCP85",
        "features": null,
        "info": {
            "people_affected": 619317,
            "flooded_area": 8096,
            "part_affected": null
        }
    }
}
